{
  "id": "note-4",
  "title": "Ask about unusual behavior of robot",
  "description": "Ask if the robot has been behaving strangely in the past few weeks.",
  "status": "OPEN",
  "type": "Task",
  "creationDate": "2018-11-17",
  "Technician": {
    "email": "van.nguyen@hska.de",
    "name": "Van Nguyen",
    "password": "password",
    "phone": "+49 07253 111111"
  }
}
