{
  "name": "Atlas",
  "description": "Atlas is the latest in a line of advanced humanoid robots we are developing.  Atlas' control system coordinates motions of the arms, torso and legs to achieve whole-body mobile manipulation, greatly expanding its reach and workspace.  Atlas' ability to balance while performing tasks allows it to work in a large volume while occupying only a small footprint. The Atlas hardware takes advantage of 3D printing to save weight and space, resulting in a remarkable compact robot with high strength-to-weight ratio and a dramatically large workspace.  Stereo vision, range sensing and other sensors give Atlas the ability to manipulate objects in its environment and to travel on rough terrain.  Atlas keeps its balance when jostled or pushed and can get up if it tips over.",
  "serialNumber": "08ed5405-7f6c-4832-9e07-cc8a24b7339b",
  "customer": {
    "name": "Wallace Corporation"
  },
  "purchaseDate": "2016-01-09",
  "documents": "",
  "bom": [
    {
      "item": {
        "id": "P1",
        "name": "Hokuyo 3D Scanning Rangefinder LIDAR YVT-35LX",
        "description": "3D Scanning Range Finder. The distance is measured by steering the laser beam vertically and horizontally."
      },
      "quantity": 1,
      "unit": "Pieces"
    },
    {
      "item": {
        "id": "P10",
        "name": "LST10 24VDC 120 RPM Wheel Chair Motor Pair",
        "description": "This is a set of wheelchair motors and make great heavy duty robot motors. One left motor and one right motor. They are right angle gear drives with a release and electric brakes. They are 24VDC and the operating speed is 120 RPM."
      },
      "quantity": 1,
      "unit": "Pieces"
    },
    {
      "item": {
        "id": "P11",
        "name": "IG32 Right Angle 12VDC 043 RPM Gear Motor With Encoder",
        "description": "These right angle gearmotors have a rated speed of 43 RPM and a gear reduction of 1:139. They work great on our robots as well as your own applications. These geared motors serve as excellent robot motors, but work great for other uses."
      },
      "quantity": 3,
      "unit": "Pieces"
    },
    {
      "item": {
        "id": "P3",
        "name": "YDLIDAR X4 - 360 degree 10 meter 2D LIDAR",
        "description": "YDLIDAR X4 LIDAR - 360-degree two-dimensional 10 meter laser range scanner (LIDAR)."
      },
      "quantity": 1,
      "unit": "Pieces"
    }
  ]
}
