{
  "name": "ACME Corporation",
  "geolocation": {
    "latitude": "49.00091",
    "longitude": "19.0513"
  },
  "contact": {
    "phone": "+49 820 4922061",
    "mail": "mail@ACME.com",
    "web": "ACME.com"
  },
  "address": "Karls-Platz 19, 76131 Karlsruhe, Deutschland",
  "serviceProducts": [
    {
      "name": "SpotMini",
      "serialNumber": "86700cac-6a61-40d0-a223-9c0ffe6eb20e",
      "purchaseDate": "2014-11-22"
    }
  ],
  "serviceHistory": []
}
